%YAML 1.1
%TAG !u! tag:unity3d.com,2011:
--- !u!1045 &1
EditorBuildSettings:
  m_ObjectHideFlags: 0
  serializedVersion: 2
  m_Scenes:
  - enabled: 1
    path: Assets/Scenes/MainMenu.unity
    guid: c0e6056ec3e0d50498eb3ad7c21e9ff9
  - enabled: 1
    path: Assets/Scenes/JungleMap.unity
    guid: bd28814eccc4b53478c057a06bbe50c8
